Sepeda_Cyclistic
…
Perbandingan membership dan musim

all_trips2 %>%
  group_by(seasons) %>%  #groups by usertype and weekday
  summarise(number_of_rides = n()
            ,member_casual) %>%         # calculates the average duration
  arrange(seasons)                              # sorts

## `summarise()` has grouped output by 'seasons'. You can override using the
## `.groups` argument.

## # A tibble: 4,350,732 × 3
## # Groups:   seasons [4]
##    seasons number_of_rides member_casual
##    <chr>             <int> <chr>        
##  1 autumm          1180394 casual       
##  2 autumm          1180394 casual       
##  3 autumm          1180394 casual       
##  4 autumm          1180394 casual       
##  5 autumm          1180394 casual       
##  6 autumm          1180394 casual       
##  7 autumm          1180394 casual       
##  8 autumm          1180394 casual       
##  9 autumm          1180394 casual       
## 10 autumm          1180394 casual       
## # … with 4,350,722 more rows

Perbandingan membership dan bulan

all_trips2 %>%
  group_by(member_casual, month) %>%  #groups by usertype and weekday
  summarise(number_of_rides = n()) %>%      # calculates the average duration
  arrange(member_casual, month)                     # sorts

## `summarise()` has grouped output by 'member_casual'. You can override using the
## `.groups` argument.

## # A tibble: 24 × 3
## # Groups:   member_casual [2]
##    member_casual month number_of_rides
##    <chr>         <chr>           <int>
##  1 casual        01              14690
##  2 casual        02               8613
##  3 casual        03              75641
##  4 casual        04             120418
##  5 casual        05             216823
##  6 casual        06             304184
##  7 casual        07             369401
##  8 casual        08             341463
##  9 casual        09             292920
## 10 casual        10             122317
## # … with 14 more rows
…
Perbandingan membership dan jam

all_trips2 %>%
  group_by(hours) %>%  #groups by usertype and weekday
  summarise(number_of_rides = n()) %>%      # calculates the average duration
  arrange(hours)                    # sorts

## # A tibble: 24 × 2
##    hours number_of_rides
##    <int>           <int>
##  1     0           61062
##  2     1           41979
##  3     2           25175
##  4     3           13522
##  5     4           11635
##  6     5           30901
##  7     6           85372
##  8     7          152934
##  9     8          178753
## 10     9          157290
## # … with 14 more rows
…
